module github.com/thekad/aoc/2022

go 1.18

require github.com/spf13/cobra v1.6.1

require (
	github.com/davecgh/go-spew v1.1.1 // indirect
	github.com/inconshreveable/mousetrap v1.0.1 // indirect
	github.com/spf13/pflag v1.0.5 // indirect
)
